module dse/gltt

go 1.20

require (
	github.com/Khan/genqlient v0.5.0
	github.com/go-git/go-git/v5 v5.5.2
	github.com/google/uuid v1.1.2
	github.com/rodaine/table v1.1.0
	github.com/spf13/cobra v1.6.1
	github.com/spf13/viper v1.15.0
	github.com/vektah/gqlparser/v2 v2.4.5
	golang.org/x/term v0.3.0
)

require (
	github.com/Microsoft/go-winio v0.5.2 // indirect
	github.com/ProtonMail/go-crypto v0.0.0-20221026131551-cf6655e29de4 // indirect
	github.com/acomagu/bufpipe v1.0.3 // indirect
	github.com/agnivade/levenshtein v1.1.1 // indirect
	github.com/alexflint/go-arg v1.4.2 // indirect
	github.com/alexflint/go-scalar v1.0.0 // indirect
	github.com/cloudflare/circl v1.1.0 // indirect
	github.com/emirpasic/gods v1.18.1 // indirect
	github.com/fsnotify/fsnotify v1.6.0 // indirect
	github.com/go-git/gcfg v1.5.0 // indirect
	github.com/go-git/go-billy/v5 v5.4.0 // indirect
	github.com/hashicorp/hcl v1.0.0 // indirect
	github.com/imdario/mergo v0.3.13 // indirect
	github.com/inconshreveable/mousetrap v1.0.1 // indirect
	github.com/jbenet/go-context v0.0.0-20150711004518-d14ea06fba99 // indirect
	github.com/kevinburke/ssh_config v1.2.0 // indirect
	github.com/magiconair/properties v1.8.7 // indirect
	github.com/mattn/go-runewidth v0.0.12 // indirect
	github.com/mitchellh/mapstructure v1.5.0 // indirect
	github.com/pelletier/go-toml/v2 v2.0.6 // indirect
	github.com/pjbgf/sha1cd v0.2.3 // indirect
	github.com/sergi/go-diff v1.1.0 // indirect
	github.com/skeema/knownhosts v1.1.0 // indirect
	github.com/spf13/afero v1.9.3 // indirect
	github.com/spf13/cast v1.5.0 // indirect
	github.com/spf13/jwalterweatherman v1.1.0 // indirect
	github.com/spf13/pflag v1.0.5 // indirect
	github.com/subosito/gotenv v1.4.2 // indirect
	github.com/xanzy/ssh-agent v0.3.3 // indirect
	golang.org/x/crypto v0.3.0 // indirect
	golang.org/x/mod v0.6.0-dev.0.20220419223038-86c51ed26bb4 // indirect
	golang.org/x/net v0.4.0 // indirect
	golang.org/x/sys v0.3.0 // indirect
	golang.org/x/text v0.5.0 // indirect
	golang.org/x/tools v0.1.12 // indirect
	gopkg.in/ini.v1 v1.67.0 // indirect
	gopkg.in/warnings.v0 v0.1.2 // indirect
	gopkg.in/yaml.v2 v2.4.0 // indirect
	gopkg.in/yaml.v3 v3.0.1 // indirect
)
